<svg width="16" height="9" viewBox="0 0 16 9" fill="none" xmlns="http://www.w3.org/2000/svg">
<path d="M8.03675 8.92936L0 0.946509L0.912209 0.0281748L8.03062 7.09882L15.0817 0L16.0004 0.912209L8.03675 8.92936Z" fill="black" fill-opacity="0.8"/>
</svg>
