<svg width="108" height="32" viewBox="0 0 108 32" fill="none" xmlns="http://www.w3.org/2000/svg">
<path fill-rule="evenodd" clip-rule="evenodd" d="M0.00297 1.72125C0.00459 2.66787 0.02241 3.402 0.04239 3.35259C0.06237 3.30291 0.11286 3.12228 0.15498 2.95083C0.40635 1.92429 1.23552 0.91017 2.2275 0.41607C2.4651 0.29754 3.08988 0.09018 3.21138 0.08937C3.2643 0.08883 3.33774 0.06912 3.375 0.04509C3.41928 0.01647 2.84904 0.00108 1.72125 0.00081L0 0L0.00297 1.72125ZM104.625 0.04509C104.662 0.06912 104.747 0.08883 104.813 0.08937C105.93 0.09558 107.54 1.62702 107.869 2.9943C107.898 3.11715 107.938 3.26808 107.958 3.32991C107.977 3.39201 107.995 2.66787 107.996 1.72125L108 0L106.279 0.00081C105.151 0.00108 104.581 0.01647 104.625 0.04509ZM8.23176 5.14188C7.88832 5.39298 7.6842 5.66703 7.58268 6.01452C7.45983 6.43545 7.48251 25.92 7.60644 26.251C7.75251 26.6414 8.21151 27.1574 8.41266 27.1574C8.45667 27.1574 19.5296 16.1447 19.5299 16.1006C19.5299 16.0788 8.64351 5.18562 8.44317 5.00688C8.43642 5.00094 8.34138 5.06169 8.23176 5.14188ZM11.1218 5.70807C11.1478 5.77665 20.4609 15.12 20.5035 15.12C20.5546 15.12 23.1101 12.5642 23.0831 12.5402C23.0718 12.5302 22.7688 12.3549 22.41 12.1508C22.0512 11.9467 21.6664 11.7239 21.5549 11.6556C21.4437 11.5873 21.2412 11.471 21.1051 11.3972C20.9687 11.3235 20.655 11.1459 20.4074 11.0022C20.1601 10.8586 19.8968 10.7066 19.8226 10.6645C19.7483 10.6223 19.4243 10.4366 19.1025 10.2514C18.7807 10.0664 18.4264 9.86391 18.3149 9.80154C18.2037 9.73917 17.9404 9.58662 17.7301 9.46296C17.5195 9.33903 17.2565 9.18675 17.145 9.12465C17.0335 9.06228 16.74 8.89515 16.4924 8.75313C16.2451 8.61111 15.9716 8.45424 15.8849 8.40429C15.7982 8.35461 15.454 8.15697 15.12 7.965C14.7857 7.77303 14.4366 7.57296 14.3438 7.52058C14.0146 7.33428 13.8359 7.23114 13.7025 7.15095C13.6283 7.1064 13.517 7.0416 13.4549 7.00731C13.3931 6.97275 13.2665 6.90093 13.1738 6.84747C13.081 6.79374 12.929 6.70707 12.8363 6.65442C12.7435 6.60204 12.3941 6.40197 12.0601 6.21C11.1524 5.68836 11.1051 5.66325 11.1218 5.70807ZM34.1909 6.63903C32.461 7.11234 31.8587 9.43407 33.1347 10.7104C33.7678 11.3435 34.9053 11.6586 35.5949 11.3916C36.6606 10.9787 37.1682 10.3056 37.1695 9.30285L37.1701 8.90838L36.0563 8.92053L34.9426 8.93241V9.13491V9.33741L35.7969 9.36009C36.7697 9.38574 36.7286 9.36441 36.6088 9.77643C36.1589 11.3241 33.9042 11.3848 33.1574 9.86931C32.2828 8.09406 34.4652 6.19596 35.9851 7.41015C36.2111 7.59078 36.2105 7.59078 36.3687 7.43904C36.8615 6.96708 35.2099 6.36012 34.1909 6.63903ZM55.7944 6.63552C54.3737 7.02729 53.619 8.65809 54.2279 10.0221C55.0994 11.9742 57.8937 11.9259 58.6726 9.94491C59.4122 8.06463 57.7101 6.1074 55.7944 6.63552ZM38.1907 6.68925C38.1737 6.70626 38.1599 7.75764 38.1599 9.02583V11.3316L38.4156 11.347C38.556 11.3557 39.1646 11.3567 39.768 11.3497L40.8648 11.337L40.8513 11.1248L40.8375 10.9126L39.7799 10.8899L38.7226 10.8675L38.7102 10.0696L38.698 9.2718L39.6779 9.25965L40.6574 9.2475L40.6723 9.11844C40.6804 9.04716 40.675 8.94105 40.6601 8.88219L40.6334 8.775H39.6665H38.6999V7.965V7.155H39.7823H40.8648L40.851 6.91875L40.8375 6.6825L39.5294 6.67062C38.8101 6.66414 38.2074 6.67251 38.1907 6.68925ZM41.6251 6.90579V7.15257L42.2888 7.16499L42.9524 7.17741L42.9643 9.2529L42.9759 11.3284L43.1611 11.3532C43.4913 11.3975 43.4678 11.5514 43.4808 9.25398L43.4924 7.17741L44.1674 7.155L44.8424 7.13259V6.90741V6.6825L43.2338 6.67062L41.6251 6.65874V6.90579ZM47.327 6.6879C47.3094 6.70572 47.2951 7.74873 47.2951 9.00585C47.2951 11.5795 47.2667 11.3908 47.6442 11.3508L47.8359 11.3306L47.824 9.00639L47.8124 6.6825L47.5859 6.66927C47.4611 6.66198 47.3445 6.67035 47.327 6.6879ZM48.7199 6.69006C48.7034 6.70653 48.6899 6.81723 48.6899 6.9363V7.15257L49.3538 7.16499L50.0175 7.17741L50.0291 9.23481C50.0421 11.5169 50.024 11.39 50.3364 11.3654C50.5913 11.3454 50.5799 11.444 50.5799 9.22239V7.155H51.2325H51.8851V6.90741V6.66009H50.3175C49.4554 6.66009 48.7366 6.67359 48.7199 6.69006ZM59.8255 6.71625C59.8139 6.7473 59.8093 7.79517 59.8158 9.045L59.8274 11.3176L60.0858 11.3311L60.3439 11.3446L60.3558 9.37359L60.3674 7.40259L60.5745 7.71741C60.6884 7.89075 60.9417 8.28981 61.1372 8.60409C61.5349 9.24372 62.1562 10.24 62.569 10.8999L62.8425 11.3376L63.1238 11.3386L63.4049 11.34V8.99775V6.65523L63.1687 6.669L62.9324 6.6825L62.91 8.56818C62.8846 10.6877 62.9173 10.5619 62.5501 9.96111C62.4386 9.77913 62.0069 9.08847 61.5905 8.42616C61.1742 7.76412 60.8097 7.18227 60.7805 7.13313C60.7514 7.08426 60.6709 6.95763 60.6015 6.85206L60.4757 6.66009H60.1614C59.9516 6.66009 59.8401 6.67872 59.8255 6.71625ZM56.9295 7.11369C59.0225 7.78167 58.6273 10.9642 56.4524 10.9544C54.9653 10.9477 54.104 9.45567 54.7789 8.05491C55.1283 7.3305 56.174 6.87285 56.9295 7.11369ZM23.1401 14.4577C22.5034 15.0836 21.8765 15.6959 21.7469 15.819C21.6173 15.9419 21.5112 16.065 21.5106 16.0923C21.5098 16.1525 24.2419 18.8266 24.3243 18.8463C24.3929 18.8627 26.8853 17.4515 27.0365 17.3108C27.4587 16.9179 27.6145 16.1285 27.3912 15.5129C27.2155 15.0287 27.027 14.8524 26.1676 14.3662C25.9943 14.2684 25.6703 14.0819 25.4475 13.952C25.2248 13.8221 24.9615 13.6701 24.8624 13.6142C24.7636 13.5583 24.6059 13.4695 24.5125 13.4163C24.4188 13.3634 24.3324 13.3199 24.32 13.3199C24.3078 13.3199 23.777 13.8321 23.1401 14.4577ZM36.5175 14.6686C32.9972 15.1613 30.9728 19.032 32.5588 22.2377C33.2424 23.6191 34.4852 24.631 35.9775 25.0212C36.9735 25.2815 38.6699 25.2164 39.3976 24.8899C41.1553 24.1013 42.0649 22.9727 42.3754 21.195C42.4435 20.8051 42.4389 19.6854 42.3687 19.5188C42.3301 19.4273 37.8348 19.3949 37.5991 19.4843L37.4827 19.5286L37.4952 20.2157L37.5076 20.9026L39.2291 20.9142L40.9509 20.9261L40.9239 21.1167C40.4182 24.6985 34.8019 24.6005 33.8018 20.9925C33.6766 20.5405 33.6606 20.4209 33.6606 19.9349C33.6606 19.4303 33.6763 19.3215 33.8243 18.8101C34.3826 16.8804 36.5267 15.6948 38.4974 16.2262C38.8438 16.3193 38.988 16.3801 39.4424 16.6242C39.4921 16.6506 39.6603 16.77 39.8166 16.8893C40.0615 17.0762 40.1109 17.098 40.1741 17.0467C40.3345 16.9171 41.0851 16.1479 41.0851 16.1133C41.0851 15.9262 39.9017 15.1581 39.2175 14.9013C38.6316 14.6815 37.2668 14.5638 36.5175 14.6686ZM65.4299 20.0262V25.0223L66.1613 25.0098L66.8925 24.9974L66.9038 20.0138L66.9155 15.0301H66.1727H65.4299V20.0262ZM77.186 20.0113L77.1976 24.9974L77.9288 25.0098L78.6599 25.0223V23.1312V21.2401L79.9762 21.2396C81.1296 21.2393 81.3383 21.2285 81.662 21.1507C84.7122 20.4196 84.9471 16.3334 82.0055 15.1772L81.6974 15.0563L79.4362 15.0409L77.1746 15.0255L77.186 20.0113ZM84.8475 15.1303C84.834 15.1864 84.8283 17.4296 84.8351 20.115L84.8475 24.9974H85.59H86.3325V20.0251V15.0525L85.6024 15.0401C84.8756 15.0279 84.8721 15.0282 84.8475 15.1303ZM81.5127 16.5756C82.7372 17.1671 82.8274 18.8355 81.675 19.575C81.3059 19.8118 81.1836 19.8277 79.8638 19.808L78.6599 19.7902V18.1057V16.4211L79.9538 16.4344L81.2476 16.4476L81.5127 16.5756ZM15.7831 21.7696C13.2157 24.3381 11.1151 26.4546 11.1151 26.4732C11.1151 26.5186 11.2512 26.4462 12.3074 25.839C12.8026 25.5544 13.2986 25.2707 13.4101 25.2085C13.7214 25.0349 15.5914 23.9568 16.0094 23.7098C16.2138 23.5888 16.3895 23.49 16.3995 23.49C16.4095 23.49 16.5761 23.396 16.77 23.281C16.9638 23.166 17.2136 23.0207 17.3251 22.9584C17.4363 22.8957 17.8616 22.6522 18.2701 22.417C18.6783 22.1819 19.2758 21.8387 19.5974 21.6545C19.9193 21.4704 20.2432 21.2846 20.3175 21.2417C20.3918 21.1985 20.817 20.9547 21.2625 20.6993C22.1076 20.2152 22.9306 19.7381 23.0313 19.6735C23.0942 19.6336 20.6053 17.0999 20.5033 17.0999C20.4746 17.0999 18.3508 19.2013 15.7831 21.7696ZM60.8175 18.4051C59.5893 18.5504 58.5673 19.389 58.0495 20.6774C57.7535 21.4142 57.8575 22.6387 58.2803 23.3969C59.2334 25.1049 61.4566 25.7215 62.6603 24.6121C62.9597 24.3365 62.9732 24.3535 62.9384 24.9637C62.9054 25.5404 62.8433 25.7753 62.63 26.1301C61.979 27.2144 60.082 27.0464 59.5164 25.8544C59.4321 25.6767 59.407 25.6686 59.2043 25.7564C59.1262 25.7901 58.8549 25.9035 58.6013 26.0088C58.0819 26.224 58.0913 26.2089 58.2752 26.5348C59.1208 28.0333 61.0551 28.6378 62.6362 27.8978C63.5693 27.4612 64.1334 26.5912 64.2994 25.3328C64.3529 24.9261 64.3745 18.7909 64.3226 18.6562C64.2997 18.596 64.1995 18.5849 63.6792 18.5849C62.9759 18.5849 62.9551 18.5944 62.9551 18.9062C62.9551 19.1827 62.913 19.2013 62.7259 19.0077C62.3047 18.5722 61.5149 18.3227 60.8175 18.4051ZM89.3924 18.4056C88.6442 18.5207 87.872 19.0088 87.4849 19.6123C87.3002 19.9001 87.3007 19.9017 87.6263 20.0348C87.7811 20.0983 88.0659 20.216 88.2595 20.2967L88.6113 20.4436L88.8057 20.2216C89.6368 19.2712 91.5751 19.7699 91.5751 20.9339C91.5751 21.084 91.5864 21.0835 91.2149 20.9461C90.2912 20.6037 89.2477 20.6779 88.3391 21.1507C86.2315 22.2469 87.1528 25.1753 89.6003 25.16C90.4249 25.1546 90.8137 25.0115 91.2865 24.5384C91.6105 24.2144 91.6088 24.2136 91.631 24.7274L91.6426 24.9974H92.34H93.0374V22.8374C93.0374 20.4593 93.0409 20.4944 92.7499 19.8901C92.249 18.8495 90.7678 18.1948 89.3924 18.4056ZM45.8776 18.4496C45.7785 18.4723 45.5963 18.515 45.4726 18.5444C42.5755 19.2294 42.1052 23.3939 44.7652 24.8057C47.2713 26.136 50.2508 23.9614 49.7289 21.1834C49.3965 19.4152 47.5068 18.0738 45.8776 18.4496ZM53.2351 18.4683C51.8916 18.7383 50.9946 19.5745 50.5275 20.9925C50.419 21.3214 50.4476 22.4178 50.5745 22.7926C50.9549 23.9166 51.7296 24.7001 52.8109 25.0552C53.0496 25.1335 53.2094 25.1616 53.7521 25.2204C54.2403 25.2733 55.1691 24.9971 55.7078 24.6391C56.1368 24.3537 56.7451 23.719 56.7451 23.5564C56.7451 23.54 56.7826 23.4727 56.8285 23.4068C57.0421 23.102 57.24 22.319 57.24 21.779C57.24 19.7003 55.2579 18.0619 53.2351 18.4683ZM70.4476 18.4264C70.4228 18.4345 70.2508 18.4758 70.065 18.5185C68.5708 18.8611 67.6601 20.0796 67.6612 21.735C67.6631 24.938 71.2965 26.4403 73.4802 24.1412C73.886 23.7141 73.8917 23.7395 73.2977 23.3315C72.6608 22.8941 72.7229 22.9057 72.4669 23.1773C71.5773 24.1205 70.126 24.0727 69.4988 23.0793C69.3549 22.8512 69.36 22.8223 69.5588 22.7432C69.6516 22.7062 69.7731 22.6565 69.8288 22.633C69.8844 22.6093 69.9756 22.5717 70.0312 22.5496C70.0869 22.5275 70.2032 22.4786 70.2899 22.441C70.3766 22.4038 70.7311 22.258 71.0775 22.1171C71.4239 21.9761 71.7682 21.8335 71.8424 21.8001C71.9167 21.7666 72.0889 21.6961 72.225 21.6435C72.3611 21.5911 72.5333 21.5217 72.6076 21.4893C72.6818 21.4572 72.8133 21.3999 72.9 21.3624C72.9867 21.3249 73.2397 21.2193 73.4624 21.1278C73.6852 21.0365 73.8734 20.9558 73.8806 20.9488C73.9346 20.8967 73.5156 20.034 73.2756 19.7027C72.6732 18.8727 71.1707 18.1948 70.4476 18.4264ZM93.2461 18.6254C93.1859 18.6635 93.3584 19.1141 93.8174 20.1172C94.0243 20.5697 94.1609 20.8772 94.2959 21.195C94.4249 21.4985 94.4992 21.667 94.6976 22.1076C94.7622 22.2504 94.8151 22.3765 94.8151 22.3876C94.8151 22.3987 94.8783 22.545 94.9555 22.7127C95.0327 22.8803 95.2025 23.2605 95.3324 23.5575C95.4626 23.8545 95.6159 24.1977 95.6734 24.32C95.8181 24.6278 95.8036 24.7525 95.5641 25.258C95.4491 25.5002 95.3551 25.7059 95.3551 25.7148C95.3551 25.7237 95.273 25.9103 95.1728 26.1293C95.0727 26.3482 94.9725 26.568 94.9501 26.6174C94.7179 27.1342 94.6058 27.3796 94.4954 27.614C94.2681 28.0959 94.2551 28.0846 95.0287 28.0787C95.9391 28.0716 95.8279 28.1462 96.1878 27.3011C96.3584 26.9004 96.575 26.406 96.6689 26.2022C96.7631 25.9986 96.8401 25.8215 96.8401 25.8088C96.8401 25.7958 96.9108 25.6319 96.9975 25.4445C97.0842 25.2569 97.1549 25.0946 97.1549 25.0838C97.1549 25.0625 97.2659 24.8098 97.4749 24.3543C97.5464 24.1985 97.605 24.0605 97.605 24.0481C97.605 24.0354 97.6433 23.9401 97.6903 23.8364C97.737 23.7325 97.9109 23.3337 98.0767 22.95C98.2425 22.5663 98.4266 22.1457 98.4866 22.015C98.5462 21.8843 98.5951 21.7693 98.5951 21.7596C98.5951 21.7496 98.6666 21.5833 98.7544 21.3897C98.9185 21.0268 98.9704 20.9083 99.0409 20.7338C99.0635 20.6779 99.1232 20.5413 99.1734 20.4301C99.4999 19.7092 99.9 18.7385 99.9 18.6683C99.9 18.5906 99.8495 18.5849 99.1383 18.5849C98.2805 18.5849 98.2986 18.5787 98.172 18.9292C98.088 19.1614 98.0527 19.2534 97.9711 19.4513C97.943 19.5194 97.9017 19.6206 97.8796 19.6763C97.8575 19.7319 97.8086 19.8482 97.771 19.9349C97.7338 20.0216 97.6388 20.2646 97.5602 20.4749C97.4813 20.6852 97.3901 20.9183 97.3571 20.9925C97.3242 21.0668 97.193 21.4007 97.0655 21.735C96.9378 22.069 96.8163 22.383 96.7953 22.4324C96.7742 22.4821 96.721 22.609 96.677 22.7146C96.5736 22.9627 96.5339 22.9424 96.3808 22.5644C96.3114 22.393 96.2366 22.2121 96.2145 22.1624C96.076 21.8527 96.0147 21.7053 95.9183 21.4488C95.8292 21.2123 95.4704 20.3307 95.3111 19.9576C95.29 19.9079 95.198 19.6852 95.1067 19.4624C95.0152 19.2397 94.8931 18.9513 94.8353 18.8212L94.73 18.5849L94.0189 18.5857C93.6276 18.586 93.2799 18.6038 93.2461 18.6254ZM46.6984 19.8188C48.8746 20.3982 48.7574 23.544 46.5483 23.8556C44.8797 24.091 43.6277 22.3916 44.3748 20.9056C44.8 20.0599 45.8171 19.5842 46.6984 19.8188ZM54.1623 19.8218C55.7275 20.2295 56.2796 22.1673 55.1502 23.288C54.1304 24.3003 52.4699 23.9995 51.81 22.6835C51.0573 21.1826 52.5261 19.3957 54.1623 19.8218ZM61.6275 19.8183C62.529 20.0672 63.0831 20.8319 63.0885 21.8341C63.0933 22.7605 62.6238 23.4374 61.7242 23.8005C60.9279 24.1218 59.8455 23.4635 59.4383 22.41C59.1465 21.6545 59.6581 20.381 60.3987 20.02C60.9636 19.7448 61.2133 19.7038 61.6275 19.8183ZM71.5171 19.8609C71.7687 19.9722 72.103 20.307 72.0803 20.425C72.0733 20.4609 71.9258 20.5478 71.7525 20.618C71.5792 20.6879 71.3969 20.7635 71.3475 20.7857C71.0508 20.9183 70.926 20.9701 70.9031 20.9701C70.8888 20.9701 70.7446 21.0308 70.5826 21.1051C70.4203 21.1793 70.271 21.2401 70.2508 21.2401C70.2305 21.2401 70.1549 21.2684 70.0831 21.303C69.8746 21.4037 69.3314 21.6321 69.225 21.6643C69.0868 21.7058 69.0709 21.6508 69.1268 21.3249C69.3239 20.1793 70.5451 19.4311 71.5171 19.8609ZM91.0867 22.0658C91.5165 22.204 91.5872 22.2615 91.5548 22.4473C91.4066 23.297 90.5145 23.9498 89.6424 23.8469C88.2452 23.6822 88.293 22.3206 89.7075 21.9861C89.8908 21.9426 90.8823 21.9999 91.0867 22.0658ZM0.00081 30.2738L0 31.995L1.72125 31.9904C2.89629 31.9872 3.39255 31.9723 3.28509 31.9432C1.9872 31.5911 1.21689 31.0654 0.62424 30.1274C0.35154 29.696 0.09099 29.0453 0.08937 28.792C0.08883 28.7345 0.06912 28.6573 0.04509 28.62C0.01647 28.5757 0.00108 29.146 0.00081 30.2738ZM107.931 28.7437C107.776 29.6668 107.152 30.6555 106.369 31.2161C105.852 31.5865 105.565 31.7123 104.715 31.9432C104.607 31.9723 105.104 31.9872 106.279 31.9904L108 31.995V30.2851C108 28.623 107.99 28.3924 107.931 28.7437Z" fill="#F9F9F9"/>
</svg>
