<svg width="8" height="14" viewBox="0 0 8 14" fill="none" xmlns="http://www.w3.org/2000/svg">
<path d="M2.09727 14V7.73828H0V5.25H2.09727V3.28945C2.09727 1.15938 3.39883 0 5.29922 0C6.20977 0 6.9918 0.0683594 7.21875 0.0984375V2.32422H5.90078C4.86719 2.32422 4.66758 2.81641 4.66758 3.53555V5.25H7L6.68008 7.73828H4.66758V14" fill="white"/>
</svg>
